id,name,model_id:id,group_id:id,perm_read,perm_write,perm_create,perm_unlink
access_fleet_vehicle_public_user,access_fleet_vehicle_public_user,model_fleet_vehicle,base.group_public,1,1,1,1
access_fleet_vehicle_cost_public_user,access_fleet_vehicle_cost_public_user,model_fleet_vehicle_cost,base.group_public,1,1,1,1
access_fleet_vehicle_model_public_user,access_fleet_vehicle_model_public_user,model_fleet_vehicle_model,base.group_public,1,1,1,1
access_fleet_vehicle_odometer_public_user,access_fleet_vehicle_odometer_public_user,model_fleet_vehicle_odometer,base.group_public,1,1,1,1
access_fleet_vehicle_log_fuel_public_user,access_fleet_vehicle_log_fuel_public_user,model_fleet_vehicle_log_fuel,base.group_public,1,1,1,1
access_fleet_vehicle_model_brand_public_user,access_fleet_vehicle_model_brand_public_user,model_fleet_vehicle_model_brand,base.group_public,1,1,1,1
access_fleet_vehicle_log_contract_public_user,access_fleet_vehicle_log_contract_public_user,model_fleet_vehicle_log_contract,base.group_public,1,1,1,1
access_fleet_vehicle_log_services_public_user,access_fleet_vehicle_log_services_public_user,model_fleet_vehicle_log_services,base.group_public,1,1,1,1
access_appeal_public_user,access_appeal_public_user,model_appeal,base.group_public,1,1,1,0
access_new_job_public_user,access_new_job_public_user,model_new_job,base.group_public,1,1,1,0
access_res_parish_public_user,access_res_parish_public_user,model_res_parish,base.group_public,1,0,0,0 
access_interest_public_user,access_interest_public_user,model_interest,base.group_public,1,0,0,0
access_target_audience_public_user,access_target_audience_public_user,model_target_audience,base.group_public,1,0,0,0



access_appeal,access_appeal,model_appeal,base.group_user,1,1,1,1
access_appeal_assists,access_appeal_assists,model_appeal_assists,base.group_user,1,1,1,1
access_resource_request,access_resource_request,model_resource_request,base.group_user,1,1,1,1
access_resource_social_program,access_resource_social_program,model_resource_social_program,base.group_user,1,1,1,1
access_resource_social_response,access_resource_social_response,model_resource_social_response,base.group_user,1,1,1,1

access_fleet_neos_res_users_user,access_fleet_neos_res_users_user,base.model_res_users,fleet.fleet_group_user,1,1,0,0
fleet.fleet_vehicle_access_right_user,fleet.fleet_vehicle_access_right",fleet.model_fleet_vehicle,fleet.fleet_group_user,1,1,1,0
fleet.fleet_service_type_access_right_user,fleet.fleet_service_type_access_right,fleet.model_fleet_service_type,fleet.fleet_group_user,1,1,1,0
fleet.fleet_vehicle_model_access_right_user,fleet.fleet_vehicle_model_access_right,fleet.model_fleet_vehicle_model,fleet.fleet_group_user,1,1,1,0
fleet.fleet_vehicle_model_brand_access_right_user,fleet.fleet_vehicle_model_brand_access_right,fleet.model_fleet_vehicle_model_brand,fleet.fleet_group_user,1,1,1,0
fleet.fleet_vehicle_log_services_access_right_user,fleet.fleet_vehicle_log_services_access_right,fleet.model_fleet_vehicle_log_services,fleet.fleet_group_user,1,1,1,0
fleet.fleet_vehicle_log_contract_access_right_user,fleet.fleet_vehicle_log_contract_access_right,fleet.model_fleet_vehicle_log_contract,fleet.fleet_group_user,1,1,1,0


access_interest_clds_user,access_interest_clds_user,model_interest,clds.group_clds_user,1,1,0,0
access_target_audience_clds_user,access_target_audience_clds_user,model_target_audience,clds.group_clds_user,1,1,0,0
access_hr_job_clds_user,access_hr_job_clds_user,model_hr_job,clds.group_clds_user,1,1,1,0
access_new_job_clds_user,access_new_job_clds_user,model_new_job,clds.group_clds_user,1,1,1,0
event_mail_clds_user,event_mail_clds_user,event.model_event_mail,clds.group_clds_user,1,1,1,0
event_event_clds_user,event_event_clds_user,event.model_event_event,clds.group_clds_user,1,1,1,0
access_res_parish_clds_user,access_res_parish_clds_user,model_res_parish,clds.group_clds_user,1,1,0,0 
access_hr_applicant_clds_user,access_hr_applicant_clds_user,model_hr_applicant,clds.group_clds_user,1,1,1,0
access_clds_res_users_clds_user,access_clds_res_users_clds_user,base.model_res_users,clds.group_clds_user,1,1,0,0
access_clds_resource_clds_user,access_clds_resource_clds_user,model_resource_reservation,clds.group_clds_user,1,1,1,0
access_clds_res_partner_clds_user,access_clds_res_partner_clds_user,base.model_res_partner,clds.group_clds_user,1,1,1,0
access_clds_res_company_clds_user,access_clds_res_company_clds_user,base.model_res_company,clds.group_clds_user,1,1,0,0
access_fleet_vehicle_cost_clds_user,access_fleet_vehicle_cost_clds_user,fleet.model_fleet_vehicle_cost,clds.group_clds_user,1,1,1,0
access_fleet_vehicle_access_right_clds_user,access_fleet_vehicle_access_right_clds_user,fleet.model_fleet_vehicle,clds.group_clds_user,1,1,1,0
access_hr_recruitment_stage_clds_user,access_hr_recruitment_stage_clds_user,hr_recruitment.model_hr_recruitment_stage,clds.group_clds_user,1,1,0,0
access_fleet_vehicle_tag_access_right_clds_user,access_fleet_vehicle_tag_access_right_clds_user,fleet.model_fleet_vehicle_tag,clds.group_clds_user,1,1,1,0
access_fleet_service_type_access_right_clds_user,access_fleet_service_type_access_right_clds_user,fleet.model_fleet_service_type,clds.group_clds_user,1,1,1,0
access_fleet_vehicle_odometer_access_right_clds_user,access_fleet_vehicle_odometer_access_right_clds_user,fleet.model_fleet_vehicle_odometer,clds.group_clds_user,1,1,1,0
access_fleet_vehicle_log_fuel_access_right_clds_user,access_fleet_vehicle_log_fuel_access_right_clds_user,fleet.model_fleet_vehicle_log_fuel,clds.group_clds_user,1,1,1,0
access_fleet_vehicle_state_access_right_user_clds_user,access_fleet_vehicle_state_access_right_user_clds_user,fleet.model_fleet_vehicle_state,clds.group_clds_user,1,1,1,0
access_fleet_vehicle_model_access_right_user_clds_user,access_fleet_vehicle_model_access_right_user_clds_user,fleet.model_fleet_vehicle_model,clds.group_clds_user,1,1,1,0
access_fleet_vehicle_model_brand_access_right_clds_user,access_fleet_vehicle_model_brand_access_right_clds_user,fleet.model_fleet_vehicle_model_brand,clds.group_clds_user,1,1,1,0
access_fleet_vehicle_log_services_access_right_clds_user,access_fleet_vehicle_log_services_access_right_clds_user,fleet.model_fleet_vehicle_log_services,clds.group_clds_user,1,1,1,0
access_fleet_vehicle_log_contract_access_right_clds_user,access_fleet_vehicle_log_contract_access_right_clds_user,fleet.model_fleet_vehicle_log_contract,clds.group_clds_user,1,1,1,0

access_interest_clds_manager,access_interest_clds_manager,model_interest,clds.group_clds_manager,1,1,1,0
access_target_audience_clds_manager,access_target_audience_clds_manager,model_target_audience,clds.group_clds_manager,1,1,1,0
event_event_clds_manager,event_event_clds_manager,event.model_event_event,clds.group_clds_manager,1,1,1,1
access_res_parish_clds_manager,access_res_parish_clds_manager,model_res_parish,clds.group_clds_manager,1,1,1,0 
access_hr_job_public_clds_manager,access_hr_job_public_clds_manager,model_hr_job,clds.group_clds_manager,1,1,1,1
access_new_job_public_clds_manager,access_new_job_public_clds_manager,model_new_job,clds.group_clds_manager,1,1,1,1
access_hr_applicant_clds_manager,access_hr_applicant_clds_manager,model_hr_applicant,clds.group_clds_manager,1,1,1,1
access_neos_resource_clds_manager,access_neos_resource_clds_manager,model_resource_reservation,clds.group_clds_manager,1,1,1,1
access_neos_res_company_clds_manager,access_neos_res_company_clds_manager,base.model_res_company,clds.group_clds_manager,1,1,0,0
access_hr_recruitment_stage_clds_manager,access_hr_recruitment_stage_clds_manager,hr_recruitment.model_hr_recruitment_stage,clds.group_clds_manager,1,1,1,0

access_interest_clds_admin,access_interest_clds_admin,model_interest,clds.group_clds_admin,1,1,1,1
access_target_audience_clds_admin,access_target_audience_clds_admin,model_target_audience,clds.group_clds_admin,1,1,1,1
event_event_clds_admin,event_event_clds_admin,event.model_event_event,clds.group_clds_admin,1,1,1,1
access_res_parish_clds_admin,access_res_parish_clds_admin,model_res_parish,clds.group_clds_admin,1,1,1,1
access_hr_job_public_clds_admin,access_hr_job_public_clds_admin,model_hr_job,clds.group_clds_admin,1,1,1,1
access_new_job_public_clds_admin,access_new_job_public_clds_admin,model_new_job,clds.group_clds_admin,1,1,1,1
access_hr_applicant_clds_admin,access_hr_applicant_clds_admin,model_hr_applicant,clds.group_clds_admin,1,1,1,1
access_neos_resource_clds_admin,access_neos_resource_clds_admin,model_resource_reservation,clds.group_clds_admin,1,1,1,1
access_neos_res_company_clds_admin,access_neos_res_company_clds_admin,base.model_res_company,clds.group_clds_admin,1,1,1,1
access_hr_recruitment_stage_clds_admin,access_hr_recruitment_stage_clds_admin,hr_recruitment.model_hr_recruitment_stage,clds.group_clds_admin,1,1,1,1